{
  "hosting": {
    "public": "build",
    "rewrites": [
      {
        "source": "**",
        "destination": "/index.html"
      }
    ],
    "headers": [
      {
        "source": "**/*.@(css|js|map)",
        "headers": [
          {
            "key": "Cache-Control",
            "value": "public, max-age=31536000"
          }
        ]
      },
      {
        "source": "**/*.@(jpg|jpeg|gif|png|ico|webp|svg)",
        "headers": [
          {
            "key": "Cache-Control",
            "value": "public, max-age=31536000"
          }
        ]
      },
      {
        "source": "/service-worker.js",
        "headers": [
          {
            "key": "Cache-Control",
            "value": "no-cache"
          }
        ]
      },
      {
        "source": "/firebase-messaging-sw.js",
        "headers": [
          {
            "key": "Cache-Control",
            "value": "no-cache"
          }
        ]
      },
      {
        "source": "/index.html",
        "headers": [
          {
            "key": "Cache-Control",
            "value": "no-cache"
          }
        ]
      }
    ]
  }
}
